…
``` r
annots <- hs_ann %>%
  dplyr::mutate(allele_series = purrr::map(timbr_out, .f = function(x){
    pp <- x$p.M.given.y[1]
    return(tibble::tibble(series = names(pp), 
                   probability = pp
                   )
    )
    }
    )
                )
print(annots %>% tidyr::unnest(allele_series))
```

    ## # A tibble: 69 x 5
    ##       hs chr   trait      series          probability
    ##    <dbl> <chr> <chr>      <chr>                 <dbl>
    ##  1     1 4     RVBD_0309  0,0,1,0,1,1,1,1      0.305 
    ##  2     1 4     RVBD_1204c 0,0,0,0,0,0,0,0      0.116 
    ##  3     1 4     RVBD_3127  0,1,1,0,0,0,0,1      0.282 
    ##  4     2 8     RVBD_0789c 0,1,0,0,0,1,1,1      0.178 
    ##  5     2 8     RVBD_0901  0,1,2,1,2,0,1,1      0.0881
    ##  6     2 8     RVBD_2161c 0,1,0,1,0,1,0,1      0.115 
    ##  7     2 8     RVBD_2466c 0,0,0,0,0,0,0,0      0.221 
    ##  8     2 8     RVBD_3208A 0,1,0,0,0,0,0,0      0.145 
    ##  9     2 8     RVBD_3236c 0,0,0,0,0,1,0,0      0.265 
    ## 10     2 8     RVBD_3394c 0,0,1,0,2,2,0,0      0.0716
    ## # … with 59 more rows
…
``` r
annots <- hs_ann %>%
  dplyr::mutate(allele_series = purrr::map(timbr_out, .f = function(x){
    pp <- x$p.M.given.y[1]
    return(tibble::tibble(series = names(pp), 
                   probability = pp
                   )
    )
    }
    )
                )
print(annots %>% tidyr::unnest(allele_series))
```

    ## # A tibble: 69 x 5
    ##       hs chr   trait      series          probability
    ##    <dbl> <chr> <chr>      <chr>                 <dbl>
    ##  1     1 4     RVBD_0309  0,0,1,0,1,1,1,1      0.0675
    ##  2     1 4     RVBD_1204c 0,0,1,0,0,0,0,2      0.0467
    ##  3     1 4     RVBD_3127  0,1,1,0,0,2,0,1      0.0713
    ##  4     2 8     RVBD_0789c 0,1,0,0,0,1,1,1      0.0459
    ##  5     2 8     RVBD_0901  0,1,2,1,2,0,1,1      0.0227
    ##  6     2 8     RVBD_2161c 0,1,2,3,4,5,6,7      0.017 
    ##  7     2 8     RVBD_2466c 0,0,0,1,2,0,0,0      0.0409
    ##  8     2 8     RVBD_3208A 0,1,0,0,0,0,0,0      0.0238
    ##  9     2 8     RVBD_3236c 0,0,0,0,0,1,0,0      0.0352
    ## 10     2 8     RVBD_3394c 0,0,1,0,2,3,0,0      0.0243
    ## # … with 59 more rows
…
